{
  "page": 1,
  "total_results": 7146,
  "total_pages": 358,
  "results": [
    {
      "popularity": 19.133,
      "vote_count": 201,
      "video": false,
      "poster_path": "/8mRgpubxHqnqvENK4Bei30xMDvy.jpg",
      "id": 537061,
      "adult": false,
      "backdrop_path": "/re3ZvlKJg04iLpLRf1xTKHS2wLU.jpg",
      "original_language": "en",
      "original_title": "Steven Universe: The Movie",
      "genre_ids": [
        12,
        16,
        35,
        14,
        10402,
        878,
        10751,
        10770
      ],
      "title": "Steven Universe: The Movie",
      "vote_average": 8.8,
      "overview": "Two years after the events of \"Change Your Mind\", Steven (now 16 years old) and his friends are ready to enjoy the rest of their lives peacefully. However, all of that changes when a new sinister Gem arrives, armed with a giant drill that saps the life force of all living things on Earth. In their biggest challenge ever, the Crystal Gems must work together to save all organic life on Earth within 48 hours.",
      "release_date": "2019-09-02"
    },
    {
      "popularity": 26.224,
      "vote_count": 2242,
      "video": false,
      "poster_path": "/2CAL2433ZeIihfX1Hb2139CX0pW.jpg",
      "id": 19404,
      "adult": false,
      "backdrop_path": "/yFryZAcSO1XEwENkYUquQ6EBGsD.jpg",
      "original_language": "hi",
      "original_title": "दिलवाले दुल्हनिया ले जायेंगे",
      "genre_ids": [
        35,
        18,
        10749
      ],
      "title": "Dilwale Dulhania Le Jayenge",
      "vote_average": 8.8,
      "overview": "Raj is a rich, carefree, happy-go-lucky second generation NRI. Simran is the daughter of Chaudhary Baldev Singh, who in spite of being an NRI is very strict about adherence to Indian values. Simran has left for India to be married to her childhood fiancé. Raj leaves for India with a mission at his hands, to claim his lady love under the noses of her whole family. Thus begins a saga.",
      "release_date": "1995-10-20"
    }
  ]
}