{
    "results": [
      {
        "popularity": 231.061,
        "vote_count": 204,
        "video": false,
        "poster_path": "/7W0G3YECgDAfnuiHG91r8WqgIOe.jpg",
        "id": 446893,
        "adult": false,
        "backdrop_path": "/qsxhnirlp7y4Ae9bd11oYJSX59j.jpg",
        "original_language": "en",
        "original_title": "Trolls World Tour",
        "genre_ids": [
          12,
          16,
          35,
          14,
          10402,
          10751
        ],
        "title": "Trolls World Tour",
        "vote_average": 7.7,
        "overview": "Queen Poppy and Branch make a surprising discovery — there are other Troll worlds beyond their own, and their distinct differences create big clashes between these various tribes. When a mysterious threat puts all of the Trolls across the land in danger, Poppy, Branch, and their band of friends must embark on an epic quest to create harmony among the feuding Trolls to unite them against certain doom.",
        "release_date": "2020-03-12"
      },
      {
        "popularity": 121.31,
        "vote_count": 875,
        "video": false,
        "poster_path": "/jtrhTYB7xSrJxR1vusu99nvnZ1g.jpg",
        "id": 522627,
        "adult": false,
        "backdrop_path": "/tintsaQ0WLzZsTMkTiqtMB3rfc8.jpg",
        "original_language": "en",
        "original_title": "The Gentlemen",
        "genre_ids": [
          28,
          35,
          80
        ],
        "title": "The Gentlemen",
        "vote_average": 7.8,
        "overview": "American expat Mickey Pearson has built a highly profitable marijuana empire in London. When word gets out that he’s looking to cash out of the business forever it triggers plots, schemes, bribery and blackmail in an attempt to steal his domain out from under him.",
        "release_date": "2020-01-01"
      }
    ],
    "page": 1,
    "total_results": 178,
    "dates": {
      "maximum": "2020-05-12",
      "minimum": "2020-04-23"
    },
    "total_pages": 9
}